…
- return_tibble_or_path:

  Default is 'path', but instead can have it return a tibble of the
  files it found. should only ever be used for troubleshooting.

## Value

file path to a folder

## Examples

``` r
whereFastqs(".")
#> # A tibble: 31 × 1
#>    value               
#>    <chr>               
#>  1 allOrients.html     
#>  2 assess_example.html 
#>  3 assess_run.html     
#>  4 calcBeta.html       
#>  5 checkAll.html       
#>  6 checkMeta.html      
#>  7 checkSampleID.html  
#>  8 contaminate.html    
#>  9 converter.html      
#> 10 cutadapt_helper.html
#> # ℹ 21 more rows
…
